{
    "rasa_nlu_version": "0.12.3",
    "pipeline": [
        {
            "name": "nlp_spacy",
            "class": "rasa_nlu.utils.spacy_utils.SpacyNLP",
            "case_sensitive": false,
            "model": "en"
        },
        {
            "name": "tokenizer_spacy",
            "class": "rasa_nlu.tokenizers.spacy_tokenizer.SpacyTokenizer"
        },
        {
            "max_df": 1.0,
            "name": "intent_featurizer_count_vectors",
            "max_features": null,
            "min_ngram": 1,
            "min_df": 1,
            "stop_words": null,
            "max_ngram": 1,
            "featurizer_file": "intent_featurizer_count_vectors.pkl",
            "token_pattern": "(?u)\\b\\w\\w+\\b",
            "strip_accents": null,
            "class": "rasa_nlu.featurizers.count_vectors_featurizer.CountVectorsFeaturizer"
        },
        {
            "name": "intent_classifier_tensorflow_embedding",
            "similarity_type": "cosine",
            "mu_pos": 0.8,
            "intent_split_symbol": "_",
            "C2": 0.002,
            "num_hidden_layers_a": 2,
            "intent_tokenization_flag": true,
            "num_hidden_layers_b": 0,
            "droprate": 0.2,
            "C_emb": 0.8,
            "hidden_layer_size_b": [],
            "num_neg": 10,
            "use_max_sim_neg": true,
            "epochs": 300,
            "classifier_file": "intent_classifier_tensorflow_embedding.ckpt",
            "hidden_layer_size_a": [
                256,
                128
            ],
            "batch_size": 32,
            "embed_dim": 10,
            "mu_neg": -0.4,
            "class": "rasa_nlu.classifiers.embedding_intent_classifier.EmbeddingIntentClassifier"
        },
        {
            "name": "ner_crf",
            "class": "rasa_nlu.extractors.crf_entity_extractor.CRFEntityExtractor",
            "max_iterations": 50,
            "L2_c": 0.001,
            "classifier_file": "crf_model.pkl",
            "features": [
                [
                    "low",
                    "title",
                    "upper",
                    "pos",
                    "pos2"
                ],
                [
                    "bias",
                    "low",
                    "word3",
                    "word2",
                    "upper",
                    "title",
                    "digit",
                    "pos",
                    "pos2",
                    "pattern"
                ],
                [
                    "low",
                    "title",
                    "upper",
                    "pos",
                    "pos2"
                ]
            ],
            "L1_c": 1,
            "BILOU_flag": true
        }
    ],
    "trained_at": "20180523-184721",
    "language": "en",
    "training_data": "training_data.json"
}